[{
		"personalInformation": {
			"patientID": "5315e0fb-a7ef-4742-9387-12cd9a000b20",
			"patientName": "",
			"disease": "d292186c-f9a6-11e6-aa21-02910a60a2f7",
			"diseasePhase": "0ba5fd1f-6a6a-458d-81b1-f61810165498",
			"comorbidities": [],
			"nationality": "FR"
		},
		"startDate": "2018-06-20",
		"endDate": "2018-06-30",
		"professionals": {
			"psychologistID": [],
			"psychiatristID": [],
			"neurologistID": ["7c837915-6791-43f6-bdb9-f101b3e13d4a"],
			"physiotherapistID": ["82b5285a-7e18-43d2-b3b0-e45fe2c0e25c"],
			"caregiverID": ["9206a22c-05d6-4476-b3d9-0f0e8e00470f", "b1ee393d-e3f0-4ebb-a307-96b11f2c2e3b", "1741743f-25a7-4faa-be1f-217c3396ddc1", "d0cd45c6-7a6e-447d-b8ed-7fe16f8e812a", "dd47b510-583a-4ff8-b4d9-d9dc71c55243"],
			"socialWorkerID": [],
			"dailyCenterWorkerID": ["d529e650-92c6-4023-9a1a-85dba0fb1e60"]
		},
		"scales": [{
			"HoehnYard": {
				"phase": "",
				"result": -99,
				"parts": []
			},
			"SPMSQ": {
				"phase": "",
				"result": -99,
				"parts": []
			},
			"MMSE": {
				"phase": "",
				"result": -99,
				"parts": []
			},
			"PDCRS": {
				"phase": "",
				"result": -99,
				"parts": []
			},
			"TinettiBergAPM": {
				"phase": "",
				"result": -99,
				"parts": []
			},
			"UPDRS": {
				"phase": "",
				"result": -99,
				"parts": []
			},
			"APMrigidity": {
				"phase": "",
				"result": -99,
				"parts": []
			},
			"PDQ8": {
				"phase": "ON",
				"result": -99,
				"parts": []
			},
			"lawton": {
				"phase": "",
				"result": -99,
				"parts": []
			},
			"GDSSF": {
				"phase": "",
				"result": -99,
				"parts": []
			}
		}]
	},
	{
		"personalInformation": {
			"patientID": "50baff5b-7898-436d-8eb6-543600cc86c3",
			"patientName": "",
			"disease": "583acccd-2d33-4c97-bb8e-e708303ccfd0",
			"diseasePhase": "314fb56c-ecb4-4d04-b93a-964b287c0af9",
			"comorbidities": [],
			"nationality": "ES"
		},
		"startDate": "2018-06-20",
		"endDate": "2018-06-30",
		"professionals": {
			"psychologistID": [],
			"psychiatristID": [],
			"neurologistID": [],
			"physiotherapistID": ["74a8bc7c-c9a4-4949-ab94-bfc2a572e17f"],
			"caregiverID": ["8612fb24-4c28-484c-a07a-222e91f7662d"],
			"socialWorkerID": ["ccdcb83d-cbf5-4366-b711-5013a3991074"],
			"dailyCenterWorkerID": ["c1f705dd-7417-4fc6-b706-865d1fc6fa4b"]
		},
		"scales": [{
			"HoehnYard": {
				"phase": "ON",
				"result": 3,
				"parts": []
			},
			"SPMSQ": {
				"phase": "",
				"result": -99,
				"parts": []
			},
			"MMSE": {
				"phase": "ON",
				"result": 25,
				"parts": [3, 5, 3, 3, 1, 10]
			},
			"PDCRS": {
				"phase": "ON",
				"result": 59,
				"parts": [4, 20, 4, 4, 7, 8, 1, 6, 5]
			},
			"TinettiBergAPM": {
				"phase": "ON",
				"result": 27.56,
				"parts": [2, 2, 16, 0, 2, 1, 5.5625]
			},
			"UPDRS": {
				"phase": "",
				"result": -99,
				"parts": []
			},
			"APMrigidity": {
				"phase": "ON",
				"result": 5.6428,
				"parts": []
			},
			"PDQ8": {
				"phase": "ON",
				"result": -99,
				"parts": []
			},
			"lawton": {
				"phase": "",
				"result": -99,
				"parts": []
			},
			"GDSSF": {
				"phase": "",
				"result": -99,
				"parts": []
			}
		}],
		"stationaryBehaviour": {
			"result": 0.0,
			"events": [
				-1.0,
				-1.0,
				-1.0,
				-1.0,
				-1.0,
				-1.0,
				-1.0,
				-1.0,
				-1.0,
				-1.0
			]
		},
		"overallMotion": {
			"result": 0.0,
			"events": [
				0.0,
				0.0,
				0.0,
				0.0,
				0.0,
				0.0,
				0.0,
				0.0,
				0.0,
				0.0
			]
		},
		"dailyMotion": {
			"result": 0.0,
			"events": [
				-2.0,
				-2.0,
				-2.0,
				-2.0,
				-2.0,
				-2.0,
				-2.0,
				-2.0,
				-2.0,
				-2.0
			]
		},
		"leavingHouse": {
			"result": 0.0,
			"events": [
				0.0,
				0.0,
				0.0,
				0.0,
				0.0,
				0.0,
				0.0,
				0.0,
				0.0,
				0.0
			]
		},
		"nightMotion": {
			"result": 0.0,
			"events": [
				0.0,
				0.0,
				0.0,
				0.0,
				0.0,
				0.0,
				0.0,
				0.0,
				0.0,
				0.0
			]
		},
		"insomnia": 0,
		"freezing": {
			"result": 0.0,
			"events": [
				-1.0,
				-1.0,
				-1.0,
				-1.0,
				-1.0,
				-1.0,
				-1.0,
				-1.0,
				-1.0,
				-1.0
			]
		},
		"festination": {
			"result": 0.0,
			"events": [
				-1.0,
				-1.0,
				-1.0,
				-1.0,
				-1.0,
				-1.0,
				-1.0,
				-1.0,
				-1.0,
				-1.0
			]
		},
		"fallDown": {
			"result": 0.0,
			"events": [
				-1.0,
				-1.0,
				-1.0,
				-1.0,
				-1.0,
				-1.0,
				-1.0,
				-1.0,
				-1.0,
				-1.0
			]
		},
		"lossBalance": {
			"result": 0.0,
			"events": [
				-1.0,
				-1.0,
				-1.0,
				-1.0,
				-1.0,
				-1.0,
				-1.0,
				-1.0,
				-1.0,
				-1.0
			]
		},
		"visitBathroom": {
			"result": 0.0,
			"events": [
				0.0,
				0.0,
				0.0,
				0.0,
				0.0,
				0.0,
				0.0,
				0.0,
				0.0,
				0.0
			]
		},
		"incontinence": 1,
		"heart_rate": {
			"result": 0.0,
			"meanHeartRate": [
				0.0,
				0.0,
				0.0,
				0.0,
				0.0,
				0.0,
				0.0,
				0.0,
				0.0,
				0.0
			],
			"minHeartRate": [
				0.0,
				0.0,
				0.0,
				0.0,
				0.0,
				0.0,
				0.0,
				0.0,
				0.0,
				0.0
			],
			"maxHeartRate": [
				0.0,
				0.0,
				0.0,
				0.0,
				0.0,
				0.0,
				0.0,
				0.0,
				0.0,
				0.0
			],
			"medianHeartRate": [
				0.0,
				0.0,
				0.0,
				0.0,
				0.0,
				0.0,
				0.0,
				0.0,
				0.0,
				0.0
			],
			"modeHeartRate": [
				0.0,
				0.0,
				0.0,
				0.0,
				0.0,
				0.0,
				0.0,
				0.0,
				0.0,
				0.0
			],
			"skewnessHeartRate": [
				0.0,
				0.0,
				0.0,
				0.0,
				0.0,
				0.0,
				0.0,
				0.0,
				0.0,
				0.0
			],
			"kurtosisHeartRate": [
				0.0,
				0.0,
				0.0,
				0.0,
				0.0,
				0.0,
				0.0,
				0.0,
				0.0,
				0.0
			]
		},
		"galvanic skin response": {
			"result": 0.0,
			"meanGSR": [
				0.0,
				0.0,
				0.0,
				0.0,
				0.0,
				0.0,
				0.0,
				0.0,
				0.0,
				0.0
			],
			"minGSR": [
				0.0,
				0.0,
				0.0,
				0.0,
				0.0,
				0.0,
				0.0,
				0.0,
				0.0,
				0.0
			],
			"maxGSR": [
				0.0,
				0.0,
				0.0,
				0.0,
				0.0,
				0.0,
				0.0,
				0.0,
				0.0,
				0.0
			],
			"medianGSR": [
				0.0,
				0.0,
				0.0,
				0.0,
				0.0,
				0.0,
				0.0,
				0.0,
				0.0,
				0.0
			],
			"modeGSR": [
				0.0,
				0.0,
				0.0,
				0.0,
				0.0,
				0.0,
				0.0,
				0.0,
				0.0,
				0.0
			],
			"skewnessGSR": [
				0.0,
				0.0,
				0.0,
				0.0,
				0.0,
				0.0,
				0.0,
				0.0,
				0.0,
				0.0
			],
			"kurtosisGSR": [
				0.0,
				0.0,
				0.0,
				0.0,
				0.0,
				0.0,
				0.0,
				0.0,
				0.0,
				0.0
			]
		},
		"digitalTimeSpent": {
			"result": 0.0,
			"events": [
				0.0,
				0.0,
				0.0,
				0.0,
				0.0,
				0.0,
				0.0,
				0.0,
				0.0,
				0.0
			]
		},
		"abnormalDigitalBehaviours": {
			"result": 0.0,
			"events": [
				0.0,
				0.0,
				0.0,
				0.0,
				0.0,
				0.0,
				0.0,
				0.0,
				0.0,
				0.0
			]
		},
		"medication": [{
			"name": "Sinemet",
			"changes": [0.0, 0.0, 0.0, 0.0, 0.0, 0.0, 0.0, 0.0, 0.0, 0.0]
		}],
		"movementEvaluations": [{
			"totalScoreDeviation": 0.0,
			"partsDeviation": [0.0, 0.0, 0.0, 0.0, 0.0, 0.0, 0.0]
		}],
		"probabilities": [{
				"type": "Insomnia|nightMotion",
				"value": 0.0
			},
			{
				"type": "Insomnia|digitalAddiction",
				"value": 0.06
			},
			{
				"type": "Insomnia|depression",
				"value": 0.2
			},
			{
				"type": "Insomnia|medicalCondition",
				"value": 0.0
			},
			{
				"type": "sleepDisorders",
				"value": 0.26
			},
			{
				"type": "Incontinence|visitsBathroom",
				"value": 0.0
			},
			{
				"type": "Incontinence|medicalCondition",
				"value": 0.3
			},
			{
				"type": "Incontinence",
				"value": 0.3
			},
			{
				"type": "Hipertension|biologicalMeasurements",
				"value": 0.001
			},
			{
				"type": "Hipertension|medicalCondition",
				"value": 0.3
			},
			{
				"type": "Hipertension",
				"value": 0.301
			},
			{
				"type": "Cardiovascular condition|biologicalMeasurements",
				"value": 0.001
			},
			{
				"type": "Cardiovascular condition|medicalCondition",
				"value": 0.3
			},
			{
				"type": "Cardiovascular condition",
				"value": 0.301
			},
			{
				"type": "digitalAddiction|digitalTimeUsage",
				"value": 0.0
			},
			{
				"type": "digitalAddiction|depression",
				"value": 0.3
			},
			{
				"type": "digitalAddiction",
				"value": 0.3
			},
			{
				"type": "digitalConfusion|abnormalDigitalBehaviour",
				"value": 0.0
			},
			{
				"type": "digitalConfusion",
				"value": 0.0
			},
			{
				"type": "Apathy|stationaryBehaviour",
				"value": 0.0
			},
			{
				"type": "Apathy|dailyMotion",
				"value": 0.001
			},
			{
				"type": "Apathy|overallMotion",
				"value": 0.001
			},
			{
				"type": "Apathy|leavingHouse",
				"value": 0.001
			},
			{
				"type": "Apathy|digitalTimeUsage",
				"value": 0.0
			},
			{
				"type": "Apathy",
				"value": 0.003
			},
			{
				"type": "ParkinsonsEvents|freezing",
				"value": 0.0
			},
			{
				"type": "ParkinsonsEvents|festination",
				"value": 0.0
			},
			{
				"type": "ParkinsonsEvents|fallDown",
				"value": 0.0
			},
			{
				"type": "ParkinsonsEvents|lossOfBalance",
				"value": 0.0
			},
			{
				"type": "ParkinsonsEvents|medicationChange",
				"value": 0.01
			},
			{
				"type": "ParkinsonsEvents",
				"value": 0.0
			},
			{
				"type": "ImprovedBehaviour|stationary",
				"value": 0.001
			},
			{
				"type": "ImprovedBehaviour|dailyMotion",
				"value": 0.0
			},
			{
				"type": "ImprovedBehaviour|overallMotion",
				"value": 0.0
			},
			{
				"type": "ImprovedBehaviour|nightMotion",
				"value": 0.001
			},
			{
				"type": "ImprovedBehaviour|leavingHouse",
				"value": 0.0
			},
			{
				"type": "ImprovedBehaviour|fallDown",
				"value": 0.001
			},
			{
				"type": "ImprovedBehaviour|festination",
				"value": 0.001
			},
			{
				"type": "ImprovedBehaviour|freezing",
				"value": 0.001
			},
			{
				"type": "ImprovedBehaviour|lossOfBalance",
				"value": 0.001
			},
			{
				"type": "ImprovedBehaviour|abnormalDigitalBehaviour",
				"value": 0.001
			},
			{
				"type": "ImprovedBehaviour|movementEvolution",
				"value": 0.0
			},
			{
				"type": "ImprovedBehaviour|medicationChange",
				"value": 0.01
			},
			{
				"type": "ImprovedBehaviour",
				"value": 0.007
			}
		]

	},
	{
		"personalInformation": {
			"patientID": "ccc97074-c7f9-47ae-a46f-3e9c79025cab",
			"patientName": "",
			"disease": "583acccd-2d33-4c97-bb8e-e708303ccfd0",
			"diseasePhase": "",
			"comorbidities": [8, 8, 4, 8],
			"nationality": "ES"
		},
		"startDate": "2018-06-20",
		"endDate": "2018-06-30",
		"professionals": {
			"psychologistID": [],
			"psychiatristID": [],
			"neurologistID": ["41a95030-6806-4c07-aeff-42cde496751a"],
			"physiotherapistID": ["b480204b-dd82-40db-a971-5cc87e1f162d", "55c11c1c-13ff-42d7-bdd0-ee7eeaa36305"],
			"caregiverID": [],
			"socialWorkerID": [],
			"dailyCenterWorkerID": []
		},
		"scales": [{
			"HoehnYard": {
				"phase": "ON",
				"result": 2.5,
				"parts": []
			},
			"SPMSQ": {
				"phase": "",
				"result": -99,
				"parts": []
			},
			"MMSE": {
				"phase": "",
				"result": -99,
				"parts": []
			},
			"PDCRS": {
				"phase": "",
				"result": -99,
				"parts": []
			},
			"TinettiBergAPM": {
				"phase": "",
				"result": -99,
				"parts": []
			},
			"UPDRS": {
				"phase": "",
				"result": -99,
				"parts": []
			},
			"APMrigidity": {
				"phase": "",
				"result": -99,
				"parts": []
			},
			"PDQ8": {
				"phase": "ON",
				"result": -99,
				"parts": []
			},
			"lawton": {
				"phase": "",
				"result": -99,
				"parts": []
			},
			"GDSSF": {
				"phase": "",
				"result": -99,
				"parts": []
			}
		}],
		"stationaryBehaviour": {
			"result": 0.0,
			"events": [
				-1.0,
				-1.0,
				-1.0,
				-1.0,
				-1.0,
				-1.0,
				-1.0,
				-1.0,
				-1.0,
				-1.0
			]
		},
		"overallMotion": {
			"result": 0.0,
			"events": [
				0.0,
				0.0,
				0.0,
				0.0,
				0.0,
				0.0,
				0.0,
				0.0,
				0.0,
				0.0
			]
		},
		"dailyMotion": {
			"result": 0.0,
			"events": [
				-2.0,
				-2.0,
				-2.0,
				-2.0,
				-2.0,
				-2.0,
				-2.0,
				-2.0,
				-2.0,
				-2.0
			]
		},
		"leavingHouse": {
			"result": 0.0,
			"events": [
				1.0,
				1.0,
				2.0,
				1.0,
				2.0,
				4.0,
				2.0,
				0.0,
				0.0,
				1.0
			]
		},
		"nightMotion": {
			"result": 10.0,
			"events": [
				1.0,
				0.0,
				1.0,
				1.0,
				0.0,
				2.0,
				2.0,
				0.0,
				0.0,
				0.0
			]
		},
		"insomnia": 0,
		"freezing": {
			"result": 0.0,
			"events": [
				-1.0,
				-1.0,
				-1.0,
				-1.0,
				-1.0,
				-1.0,
				-1.0,
				-1.0,
				-1.0,
				-1.0
			]
		},
		"festination": {
			"result": 0.0,
			"events": [
				-1.0,
				-1.0,
				-1.0,
				-1.0,
				-1.0,
				-1.0,
				-1.0,
				-1.0,
				-1.0,
				-1.0
			]
		},
		"fallDown": {
			"result": 0.0,
			"events": [
				-1.0,
				-1.0,
				-1.0,
				-1.0,
				-1.0,
				-1.0,
				-1.0,
				-1.0,
				-1.0,
				-1.0
			]
		},
		"lossBalance": {
			"result": 0.0,
			"events": [
				-1.0,
				-1.0,
				-1.0,
				-1.0,
				-1.0,
				-1.0,
				-1.0,
				-1.0,
				-1.0,
				-1.0
			]
		},
		"visitBathroom": {
			"result": 0.0,
			"events": [
				0.0,
				0.0,
				0.0,
				0.0,
				0.0,
				0.0,
				0.0,
				0.0,
				0.0,
				0.0
			]
		},
		"incontinence": 0,
		"heart_rate": {
			"result": 0.0,
			"meanHeartRate": [
				0.0,
				0.0,
				0.0,
				0.0,
				0.0,
				0.0,
				0.0,
				0.0,
				0.0,
				0.0
			],
			"minHeartRate": [
				0.0,
				0.0,
				0.0,
				0.0,
				0.0,
				0.0,
				0.0,
				0.0,
				0.0,
				0.0
			],
			"maxHeartRate": [
				0.0,
				0.0,
				0.0,
				0.0,
				0.0,
				0.0,
				0.0,
				0.0,
				0.0,
				0.0
			],
			"medianHeartRate": [
				0.0,
				0.0,
				0.0,
				0.0,
				0.0,
				0.0,
				0.0,
				0.0,
				0.0,
				0.0
			],
			"modeHeartRate": [
				0.0,
				0.0,
				0.0,
				0.0,
				0.0,
				0.0,
				0.0,
				0.0,
				0.0,
				0.0
			],
			"skewnessHeartRate": [
				0.0,
				0.0,
				0.0,
				0.0,
				0.0,
				0.0,
				0.0,
				0.0,
				0.0,
				0.0
			],
			"kurtosisHeartRate": [
				0.0,
				0.0,
				0.0,
				0.0,
				0.0,
				0.0,
				0.0,
				0.0,
				0.0,
				0.0
			]
		},
		"galvanic skin response": {
			"result": 0.0,
			"meanGSR": [
				0.0,
				0.0,
				0.0,
				0.0,
				0.0,
				0.0,
				0.0,
				0.0,
				0.0,
				0.0
			],
			"minGSR": [
				0.0,
				0.0,
				0.0,
				0.0,
				0.0,
				0.0,
				0.0,
				0.0,
				0.0,
				0.0
			],
			"maxGSR": [
				0.0,
				0.0,
				0.0,
				0.0,
				0.0,
				0.0,
				0.0,
				0.0,
				0.0,
				0.0
			],
			"medianGSR": [
				0.0,
				0.0,
				0.0,
				0.0,
				0.0,
				0.0,
				0.0,
				0.0,
				0.0,
				0.0
			],
			"modeGSR": [
				0.0,
				0.0,
				0.0,
				0.0,
				0.0,
				0.0,
				0.0,
				0.0,
				0.0,
				0.0
			],
			"skewnessGSR": [
				0.0,
				0.0,
				0.0,
				0.0,
				0.0,
				0.0,
				0.0,
				0.0,
				0.0,
				0.0
			],
			"kurtosisGSR": [
				0.0,
				0.0,
				0.0,
				0.0,
				0.0,
				0.0,
				0.0,
				0.0,
				0.0,
				0.0
			]
		},
		"digitalTimeSpent": {
			"result": 0.0,
			"events": [
				0.0,
				0.0,
				0.0,
				0.0,
				0.0,
				0.0,
				0.0,
				0.0,
				0.0,
				0.0
			]
		},
		"abnormalDigitalBehaviours": {
			"result": 0.0,
			"events": [
				0.0,
				0.0,
				0.0,
				0.0,
				0.0,
				0.0,
				0.0,
				0.0,
				0.0,
				0.0
			]
		},
		"medication": [{
				"name": "AZILECT",
				"changes": [0.0, 0.0, 0.0, 0.0, 0.0, 0.0, 0.0, 0.0, 0.0, 0.0]
			},
			{
				"name": "ONGENTYS",
				"changes": [0.0, 0.0, 0.0, 0.0, 0.0, 0.0, 0.0, 0.0, 0.0, 0.0]
			},
			{
				"name": "RODIPINOL",
				"changes": [0.0, 0.0, 0.0, 0.0, 0.0, 0.0, 0.0, 0.0, 0.0, 0.0]
			},
			{
				"name": "LIXIANA",
				"changes": [0.0, 0.0, 0.0, 0.0, 0.0, 0.0, 0.0, 0.0, 0.0, 0.0]
			},
			{
				"name": "SINEMET RETARD",
				"changes": [0.0, 0.0, 0.0, 0.0, 0.0, 0.0, 0.0, 0.0, 0.0, 0.0]
			},
			{
				"name": "SINBASTATINA",
				"changes": [0.0, 0.0, 0.0, 0.0, 0.0, 0.0, 0.0, 0.0, 0.0, 0.0]
			},
			{
				"name": "METFORMINA",
				"changes": [0.0, 0.0, 0.0, 0.0, 0.0, 0.0, 0.0, 0.0, 0.0, 0.0]
			},
			{
				"name": "CARBOCAL",
				"changes": [0.0, 0.0, 0.0, 0.0, 0.0, 0.0, 0.0, 0.0, 0.0, 0.0]
			},
			{
				"name": "MADOPAR",
				"changes": [0.0, 0.0, 0.0, 0.0, 0.0, 0.0, 0.0, 0.0, 0.0, 0.0]
			}
		],
		"movementEvaluations": [{
			"totalScoreDeviation": 0.0,
			"partsDeviation": [0.0, 0.0, 0.0, 0.0, 0.0, 0.0, 0.0]
		}],
		"probabilities": [{
				"type": "Insomnia|nightMotion",
				"value": 0.06
			},
			{
				"type": "Insomnia|digitalAddiction",
				"value": 0.06
			},
			{
				"type": "Insomnia|depression",
				"value": 0.2
			},
			{
				"type": "Insomnia|medicalCondition",
				"value": 0.0
			},
			{
				"type": "sleepDisorders",
				"value": 0.32
			},
			{
				"type": "Incontinence|visitsBathroom",
				"value": 0.0
			},
			{
				"type": "Incontinence|medicalCondition",
				"value": 0.0
			},
			{
				"type": "Incontinence",
				"value": 0.0
			},
			{
				"type": "Hipertension|biologicalMeasurements",
				"value": 0.001
			},
			{
				"type": "Hipertension|medicalCondition",
				"value": 0.0
			},
			{
				"type": "Hipertension",
				"value": 0.001
			},
			{
				"type": "Cardiovascular condition|biologicalMeasurements",
				"value": 0.001
			},
			{
				"type": "Cardiovascular condition|medicalCondition",
				"value": 0.0
			},
			{
				"type": "Cardiovascular condition",
				"value": 0.001
			},
			{
				"type": "digitalAddiction|digitalTimeUsage",
				"value": 0.0
			},
			{
				"type": "digitalAddiction|depression",
				"value": 0.3
			},
			{
				"type": "digitalAddiction",
				"value": 0.3
			},
			{
				"type": "digitalConfusion|abnormalDigitalBehaviour",
				"value": 0.0
			},
			{
				"type": "digitalConfusion",
				"value": 0.0
			},
			{
				"type": "Apathy|stationaryBehaviour",
				"value": 0.0
			},
			{
				"type": "Apathy|dailyMotion",
				"value": 0.001
			},
			{
				"type": "Apathy|overallMotion",
				"value": 0.001
			},
			{
				"type": "Apathy|leavingHouse",
				"value": 0.001
			},
			{
				"type": "Apathy|digitalTimeUsage",
				"value": 0.0
			},
			{
				"type": "Apathy",
				"value": 0.003
			},
			{
				"type": "ParkinsonsEvents|freezing",
				"value": 0.0
			},
			{
				"type": "ParkinsonsEvents|festination",
				"value": 0.0
			},
			{
				"type": "ParkinsonsEvents|fallDown",
				"value": 0.0
			},
			{
				"type": "ParkinsonsEvents|lossOfBalance",
				"value": 0.0
			},
			{
				"type": "ParkinsonsEvents|medicationChange",
				"value": 0.01
			},
			{
				"type": "ParkinsonsEvents",
				"value": 0.0
			},
			{
				"type": "ImprovedBehaviour|stationary",
				"value": 0.001
			},
			{
				"type": "ImprovedBehaviour|dailyMotion",
				"value": 0.0
			},
			{
				"type": "ImprovedBehaviour|overallMotion",
				"value": 0.0
			},
			{
				"type": "ImprovedBehaviour|nightMotion",
				"value": 0.001
			},
			{
				"type": "ImprovedBehaviour|leavingHouse",
				"value": 0.0
			},
			{
				"type": "ImprovedBehaviour|fallDown",
				"value": 0.001
			},
			{
				"type": "ImprovedBehaviour|festination",
				"value": 0.001
			},
			{
				"type": "ImprovedBehaviour|freezing",
				"value": 0.001
			},
			{
				"type": "ImprovedBehaviour|lossOfBalance",
				"value": 0.001
			},
			{
				"type": "ImprovedBehaviour|abnormalDigitalBehaviour",
				"value": 0.001
			},
			{
				"type": "ImprovedBehaviour|movementEvolution",
				"value": 0.0
			},
			{
				"type": "ImprovedBehaviour|medicationChange",
				"value": 0.01
			},
			{
				"type": "ImprovedBehaviour",
				"value": 0.007
			}
		]

	},
	{
		"personalInformation": {
			"patientID": "20cd74e3-2f0e-4812-bd22-f13a277a1e6d",
			"patientName": "",
			"disease": "d292186c-f9a6-11e6-aa21-02910a60a2f7",
			"diseasePhase": "",
			"comorbidities": [],
			"nationality": "HU"
		},
		"startDate": "2018-06-20",
		"endDate": "2018-06-30",
		"professionals": {
			"psychologistID": [],
			"psychiatristID": [],
			"neurologistID": [],
			"physiotherapistID": [],
			"caregiverID": [],
			"socialWorkerID": [],
			"dailyCenterWorkerID": []
		},
		"scales": [{
			"HoehnYard": {
				"phase": "",
				"result": -99,
				"parts": []
			},
			"SPMSQ": {
				"phase": "",
				"result": -99,
				"parts": []
			},
			"MMSE": {
				"phase": "",
				"result": -99,
				"parts": []
			},
			"PDCRS": {
				"phase": "",
				"result": -99,
				"parts": []
			},
			"TinettiBergAPM": {
				"phase": "",
				"result": -99,
				"parts": []
			},
			"UPDRS": {
				"phase": "",
				"result": -99,
				"parts": []
			},
			"APMrigidity": {
				"phase": "",
				"result": -99,
				"parts": []
			},
			"PDQ8": {
				"phase": "ON",
				"result": -99,
				"parts": []
			},
			"lawton": {
				"phase": "",
				"result": -99,
				"parts": []
			},
			"GDSSF": {
				"phase": "",
				"result": -99,
				"parts": []
			}
		}]
	},
	{
		"personalInformation": {
			"patientID": "8f89d416-5bfb-4e53-95ab-42d2877b0213",
			"patientName": "",
			"disease": "d292186c-f9a6-11e6-aa21-02910a60a2f7",
			"diseasePhase": "",
			"comorbidities": [],
			"nationality": "HU"
		},
		"startDate": "2018-06-20",
		"endDate": "2018-06-30",
		"professionals": {
			"psychologistID": [],
			"psychiatristID": [],
			"neurologistID": [],
			"physiotherapistID": [],
			"caregiverID": [],
			"socialWorkerID": [],
			"dailyCenterWorkerID": []
		},
		"scales": [{
			"HoehnYard": {
				"phase": "",
				"result": -99,
				"parts": []
			},
			"SPMSQ": {
				"phase": "",
				"result": -99,
				"parts": []
			},
			"MMSE": {
				"phase": "",
				"result": -99,
				"parts": []
			},
			"PDCRS": {
				"phase": "",
				"result": -99,
				"parts": []
			},
			"TinettiBergAPM": {
				"phase": "",
				"result": -99,
				"parts": []
			},
			"UPDRS": {
				"phase": "",
				"result": -99,
				"parts": []
			},
			"APMrigidity": {
				"phase": "",
				"result": -99,
				"parts": []
			},
			"PDQ8": {
				"phase": "ON",
				"result": -99,
				"parts": []
			},
			"lawton": {
				"phase": "",
				"result": -99,
				"parts": []
			},
			"GDSSF": {
				"phase": "",
				"result": -99,
				"parts": []
			}
		}]
	},
	{
		"personalInformation": {
			"patientID": "fb0fd2b8-db67-4b49-b59d-e523c81febe1",
			"patientName": "",
			"disease": "d292186c-f9a6-11e6-aa21-02910a60a2f7",
			"diseasePhase": "",
			"comorbidities": [],
			"nationality": "HU"
		},
		"startDate": "2018-06-20",
		"endDate": "2018-06-30",
		"professionals": {
			"psychologistID": [],
			"psychiatristID": [],
			"neurologistID": [],
			"physiotherapistID": [],
			"caregiverID": [],
			"socialWorkerID": [],
			"dailyCenterWorkerID": []
		},
		"scales": [{
			"HoehnYard": {
				"phase": "",
				"result": -99,
				"parts": []
			},
			"SPMSQ": {
				"phase": "",
				"result": -99,
				"parts": []
			},
			"MMSE": {
				"phase": "",
				"result": -99,
				"parts": []
			},
			"PDCRS": {
				"phase": "",
				"result": -99,
				"parts": []
			},
			"TinettiBergAPM": {
				"phase": "",
				"result": -99,
				"parts": []
			},
			"UPDRS": {
				"phase": "",
				"result": -99,
				"parts": []
			},
			"APMrigidity": {
				"phase": "",
				"result": -99,
				"parts": []
			},
			"PDQ8": {
				"phase": "ON",
				"result": -99,
				"parts": []
			},
			"lawton": {
				"phase": "",
				"result": -99,
				"parts": []
			},
			"GDSSF": {
				"phase": "",
				"result": -99,
				"parts": []
			}
		}]
	},
	{
		"personalInformation": {
			"patientID": "9d5212fa-6d89-4855-a0aa-34874f406d22",
			"patientName": "",
			"disease": "d292186c-f9a6-11e6-aa21-02910a60a2f7",
			"diseasePhase": "",
			"comorbidities": [],
			"nationality": "HU"
		},
		"startDate": "2018-06-20",
		"endDate": "2018-06-30",
		"professionals": {
			"psychologistID": [],
			"psychiatristID": [],
			"neurologistID": [],
			"physiotherapistID": [],
			"caregiverID": [],
			"socialWorkerID": [],
			"dailyCenterWorkerID": []
		},
		"scales": [{
			"HoehnYard": {
				"phase": "",
				"result": -99,
				"parts": []
			},
			"SPMSQ": {
				"phase": "",
				"result": -99,
				"parts": []
			},
			"MMSE": {
				"phase": "",
				"result": -99,
				"parts": []
			},
			"PDCRS": {
				"phase": "",
				"result": -99,
				"parts": []
			},
			"TinettiBergAPM": {
				"phase": "",
				"result": -99,
				"parts": []
			},
			"UPDRS": {
				"phase": "",
				"result": -99,
				"parts": []
			},
			"APMrigidity": {
				"phase": "",
				"result": -99,
				"parts": []
			},
			"PDQ8": {
				"phase": "ON",
				"result": -99,
				"parts": []
			},
			"lawton": {
				"phase": "",
				"result": -99,
				"parts": []
			},
			"GDSSF": {
				"phase": "",
				"result": -99,
				"parts": []
			}
		}]
	},
	{
		"personalInformation": {
			"patientID": "5ffe9de5-d206-4a88-b692-83ebfc6622f0",
			"patientName": "",
			"disease": "d292186c-f9a6-11e6-aa21-02910a60a2f7",
			"diseasePhase": "",
			"comorbidities": [],
			"nationality": "HU"
		},
		"startDate": "2018-06-20",
		"endDate": "2018-06-30",
		"professionals": {
			"psychologistID": [],
			"psychiatristID": [],
			"neurologistID": [],
			"physiotherapistID": [],
			"caregiverID": [],
			"socialWorkerID": [],
			"dailyCenterWorkerID": []
		},
		"scales": [{
			"HoehnYard": {
				"phase": "",
				"result": -99,
				"parts": []
			},
			"SPMSQ": {
				"phase": "",
				"result": -99,
				"parts": []
			},
			"MMSE": {
				"phase": "",
				"result": -99,
				"parts": []
			},
			"PDCRS": {
				"phase": "",
				"result": -99,
				"parts": []
			},
			"TinettiBergAPM": {
				"phase": "",
				"result": -99,
				"parts": []
			},
			"UPDRS": {
				"phase": "",
				"result": -99,
				"parts": []
			},
			"APMrigidity": {
				"phase": "",
				"result": -99,
				"parts": []
			},
			"PDQ8": {
				"phase": "ON",
				"result": -99,
				"parts": []
			},
			"lawton": {
				"phase": "",
				"result": -99,
				"parts": []
			},
			"GDSSF": {
				"phase": "",
				"result": -99,
				"parts": []
			}
		}]
	},
	{
		"personalInformation": {
			"patientID": "5dbf183a-e7d1-4c38-a859-9ea21d9307c2",
			"patientName": "",
			"disease": "d292186c-f9a6-11e6-aa21-02910a60a2f7",
			"diseasePhase": "",
			"comorbidities": [],
			"nationality": "HU"
		},
		"startDate": "2018-06-20",
		"endDate": "2018-06-30",
		"professionals": {
			"psychologistID": [],
			"psychiatristID": [],
			"neurologistID": [],
			"physiotherapistID": [],
			"caregiverID": [],
			"socialWorkerID": [],
			"dailyCenterWorkerID": []
		},
		"scales": [{
			"HoehnYard": {
				"phase": "",
				"result": -99,
				"parts": []
			},
			"SPMSQ": {
				"phase": "",
				"result": -99,
				"parts": []
			},
			"MMSE": {
				"phase": "",
				"result": -99,
				"parts": []
			},
			"PDCRS": {
				"phase": "",
				"result": -99,
				"parts": []
			},
			"TinettiBergAPM": {
				"phase": "",
				"result": -99,
				"parts": []
			},
			"UPDRS": {
				"phase": "",
				"result": -99,
				"parts": []
			},
			"APMrigidity": {
				"phase": "",
				"result": -99,
				"parts": []
			},
			"PDQ8": {
				"phase": "ON",
				"result": -99,
				"parts": []
			},
			"lawton": {
				"phase": "",
				"result": -99,
				"parts": []
			},
			"GDSSF": {
				"phase": "",
				"result": -99,
				"parts": []
			}
		}]
	}
]